{
  "relationships": [
    {
      "relationshipId": 1,
      "relationshipType": "one-to-one",
      "relationshipName": "subTeam",
      "otherEntityName": "subTeam",
      "otherEntityField": "id",
      "ownerSide": true,
      "otherEntityRelationshipName": "teamMembers"
    },
    {
      "relationshipId": 2,
      "relationshipType": "one-to-one",
      "relationshipName": "employee",
      "otherEntityName": "employee",
      "otherEntityField": "id",
      "ownerSide": true,
      "otherEntityRelationshipName": "teamMembers"
    }
  ],
  "fields": [
    {
      "fieldId": 1,
      "fieldName": "memberId",
      "fieldType": "Integer"
    }
  ],
  "changelogDate": "20160803180708",
  "dto": "mapstruct",
  "pagination": "no",
  "service": "serviceImpl",
  "entityTableName": "team_members"
}